^C:\USERS\CYGNUS\APPDATA\LOCAL\TEMPORARY PROJECTS\CHATSERVER\FORM1.RESX|C:\USERS\CYGNUS\APPDATA\LOCAL\TEMPORARY PROJECTS\CHATSERVER\PROPERTIES\RESOURCES.RESX
^C:\USERS\CYGNUS\APPDATA\LOCAL\TEMPORARY PROJECTS\CHATSERVER\FORM1.RESX|C:\USERS\CYGNUS\APPDATA\LOCAL\TEMPORARY PROJECTS\CHATSERVER\PORTPROMPT.RESX|C:\USERS\CYGNUS\APPDATA\LOCAL\TEMPORARY PROJECTS\CHATSERVER\PROPERTIES\RESOURCES.RESX
^C:\USERS\CYGNUS\DOCUMENTS\VISUAL STUDIO 2010\PROJECTS\CHATSERVER\CHATSERVER\FORM1.RESX|C:\USERS\CYGNUS\DOCUMENTS\VISUAL STUDIO 2010\PROJECTS\CHATSERVER\CHATSERVER\PORTPROMPT.RESX|C:\USERS\CYGNUS\DOCUMENTS\VISUAL STUDIO 2010\PROJECTS\CHATSERVER\CHATSERVER\PROPERTIES\RESOURCES.RESX
C:\USERS\CYGNUS\DOCUMENTS\VISUAL STUDIO 2010\PROJECTS\CHATSERVER\CHATSERVER\OBJ\X86\RELEASE\CHATSERVER.FORM1.RESOURCES
C:\USERS\CYGNUS\DOCUMENTS\VISUAL STUDIO 2010\PROJECTS\CHATSERVER\CHATSERVER\OBJ\X86\RELEASE\CHATSERVER.PORTPROMPT.RESOURCES
C:\USERS\CYGNUS\DOCUMENTS\VISUAL STUDIO 2010\PROJECTS\CHATSERVER\CHATSERVER\OBJ\X86\RELEASE\CHATSERVER.PROPERTIES.RESOURCES.RESOURCES
